classes,trainning_duration,metrics_per_class,confusion_matrix_path
"[['Arleigh_Burke_class_destroyers', 'Austen_class_amphibious_transport_dock', 'Command_ship_A', 'Container_ship_A', 'Nimitz_Enterprise_class_aircraft_carrier', 'Perry_class_frigate', 'Tarawa-class_amphibious_assault_ship', 'Ticonderoga_class_cruiser', 'WhidbeyIsland_class_landing_craft'], ['Container_ship'], ['Minesweeper_Segura']]",0.9577264785766602,"{'Arleigh_Burke_class_destroyers': [0.9516129032258065, 0.9672131147540983, 0.959349593495935, 0.9827586206896551], 'Austen_class_amphibious_transport_dock': [0.8387096774193549, 0.6046511627906976, 0.7027027027027026, 0.9620689655172414], 'Command_ship_A': [0.9130434782608695, 0.6363636363636364, 0.75, 0.9758620689655172], 'Container_ship': [0.21568627450980393, 0.4782608695652174, 0.2972972972972973, 0.9103448275862069], 'Container_ship_A': [0.3783783783783784, 0.8235294117647058, 0.5185185185185186, 0.9103448275862069], 'Minesweeper_Segura': [0.9411764705882353, 0.3018867924528302, 0.4571428571428572, 0.9344827586206896], 'Nimitz_Enterprise_class_aircraft_carrier': [0.8888888888888888, 1.0, 0.9411764705882353, 0.9913793103448276], 'Perry_class_frigate': [0.8734177215189873, 1.0, 0.9324324324324325, 0.9827586206896551], 'Tarawa-class_amphibious_assault_ship': [1.0, 0.5526315789473685, 0.711864406779661, 0.9413793103448276], 'Ticonderoga_class_cruiser': [0.8840579710144928, 0.9682539682539683, 0.9242424242424243, 0.9827586206896551], 'WhidbeyIsland_class_landing_craft': [0.84, 0.875, 0.8571428571428572, 0.9879310344827587]}",/var/seda-datasets/1.DS_Terceros/1.1.RGB/HRSC2016/HRSC2016/CU-02/results/imgs/fsl/1-shot_1-novel_1-extra/20210909-111540_0.png
"[['Arleigh_Burke_class_destroyers', 'Austen_class_amphibious_transport_dock', 'Command_ship_A', 'Container_ship_A', 'Nimitz_Enterprise_class_aircraft_carrier', 'Perry_class_frigate', 'Tarawa-class_amphibious_assault_ship', 'Ticonderoga_class_cruiser', 'WhidbeyIsland_class_landing_craft'], ['Medical_ship'], ['Minesweeper_Segura']]",0.9846243858337402,"{'Arleigh_Burke_class_destroyers': [0.8064516129032258, 0.9803921568627451, 0.8849557522123893, 0.9529837251356239], 'Austen_class_amphibious_transport_dock': [0.967741935483871, 0.4838709677419355, 0.6451612903225807, 0.9403254972875226], 'Command_ship_A': [0.8260869565217391, 0.7037037037037037, 0.76, 0.9783001808318263], 'Container_ship_A': [0.33783783783783783, 0.8333333333333334, 0.4807692307692308, 0.9023508137432188], 'Medical_ship': [0.9583333333333334, 0.3108108108108108, 0.4693877551020408, 0.9059674502712477], 'Minesweeper_Segura': [0.5882352941176471, 0.45454545454545453, 0.5128205128205129, 0.9656419529837251], 'Nimitz_Enterprise_class_aircraft_carrier': [0.9111111111111111, 1.0, 0.9534883720930233, 0.9927667269439421], 'Perry_class_frigate': [0.9113924050632911, 0.8571428571428571, 0.8834355828220858, 0.9656419529837251], 'Tarawa-class_amphibious_assault_ship': [0.6666666666666666, 0.7567567567567568, 0.7088607594936708, 0.9584086799276673], 'Ticonderoga_class_cruiser': [0.7536231884057971, 0.9811320754716981, 0.8524590163934427, 0.9674502712477396], 'WhidbeyIsland_class_landing_craft': [0.84, 1.0, 0.9130434782608696, 0.9927667269439421]}",/var/seda-datasets/1.DS_Terceros/1.1.RGB/HRSC2016/HRSC2016/CU-02/results/imgs/fsl/1-shot_1-novel_1-extra/20210909-111635_1.png
"[['Arleigh_Burke_class_destroyers', 'Austen_class_amphibious_transport_dock', 'Command_ship_A', 'Container_ship_A', 'Nimitz_Enterprise_class_aircraft_carrier', 'Perry_class_frigate', 'Tarawa-class_amphibious_assault_ship', 'Ticonderoga_class_cruiser', 'WhidbeyIsland_class_landing_craft'], ['Medical_ship'], ['Minesweeper_Segura']]",0.9562962055206299,"{'Arleigh_Burke_class_destroyers': [0.9032258064516129, 0.9655172413793104, 0.9333333333333333, 0.9710669077757685], 'Austen_class_amphibious_transport_dock': [1.0, 0.6078431372549019, 0.7560975609756097, 0.9638336347197106], 'Command_ship_A': [0.8695652173913043, 0.8333333333333334, 0.851063829787234, 0.9873417721518988], 'Container_ship_A': [0.3108108108108108, 0.9583333333333334, 0.4693877551020408, 0.9059674502712477], 'Medical_ship': [1.0, 0.2857142857142857, 0.4444444444444445, 0.891500904159132], 'Minesweeper_Segura': [0.7058823529411765, 0.6, 0.6486486486486486, 0.976491862567812], 'Nimitz_Enterprise_class_aircraft_carrier': [1.0, 0.9782608695652174, 0.989010989010989, 0.9981916817359855], 'Perry_class_frigate': [0.9367088607594937, 0.925, 0.9308176100628932, 0.9801084990958409], 'Tarawa-class_amphibious_assault_ship': [0.9047619047619048, 0.8837209302325582, 0.8941176470588236, 0.9837251356238698], 'Ticonderoga_class_cruiser': [0.9130434782608695, 0.984375, 0.9473684210526315, 0.9873417721518988], 'WhidbeyIsland_class_landing_craft': [0.0, 0.0, nan, 0.9529837251356239]}",/var/seda-datasets/1.DS_Terceros/1.1.RGB/HRSC2016/HRSC2016/CU-02/results/imgs/fsl/1-shot_1-novel_1-extra/20210909-111727_2.png
"[['Arleigh_Burke_class_destroyers', 'Austen_class_amphibious_transport_dock', 'Command_ship_A', 'Container_ship_A', 'Nimitz_Enterprise_class_aircraft_carrier', 'Perry_class_frigate', 'Tarawa-class_amphibious_assault_ship', 'Ticonderoga_class_cruiser', 'WhidbeyIsland_class_landing_craft'], ['Sanantonio_class_amphibious_transport_dock'], ['Minesweeper_Segura']]",0.981600284576416,"{'Arleigh_Burke_class_destroyers': [0.8870967741935484, 0.9821428571428571, 0.9322033898305085, 0.9724137931034482], 'Austen_class_amphibious_transport_dock': [0.8709677419354839, 0.8181818181818182, 0.84375, 0.9827586206896551], 'Command_ship_A': [0.9130434782608695, 0.6, 0.7241379310344828, 0.9724137931034482], 'Container_ship_A': [0.8918918918918919, 0.9705882352941176, 0.9295774647887325, 0.9827586206896551], 'Minesweeper_Segura': [1.0, 0.3333333333333333, 0.5, 0.9413793103448276], 'Nimitz_Enterprise_class_aircraft_carrier': [1.0, 1.0, 1.0, 1.0], 'Perry_class_frigate': [0.810126582278481, 0.9846153846153847, 0.888888888888889, 0.9724137931034482], 'Sanantonio_class_amphibious_transport_dock': [0.7843137254901961, 0.8, 0.792079207920792, 0.9637931034482758], 'Tarawa-class_amphibious_assault_ship': [0.7857142857142857, 0.9428571428571428, 0.8571428571428571, 0.9810344827586207], 'Ticonderoga_class_cruiser': [0.7681159420289855, 0.9464285714285714, 0.848, 0.9672413793103448], 'WhidbeyIsland_class_landing_craft': [0.8, 0.6666666666666666, 0.7272727272727272, 0.9741379310344828]}",/var/seda-datasets/1.DS_Terceros/1.1.RGB/HRSC2016/HRSC2016/CU-02/results/imgs/fsl/1-shot_1-novel_1-extra/20210909-111819_3.png
"[['Arleigh_Burke_class_destroyers', 'Austen_class_amphibious_transport_dock', 'Command_ship_A', 'Container_ship_A', 'Nimitz_Enterprise_class_aircraft_carrier', 'Perry_class_frigate', 'Tarawa-class_amphibious_assault_ship', 'Ticonderoga_class_cruiser', 'WhidbeyIsland_class_landing_craft'], ['Sanantonio_class_amphibious_transport_dock'], ['Destroyer_Murasame']]",1.7599406242370605,"{'Arleigh_Burke_class_destroyers': [0.9032258064516129, 0.9824561403508771, 0.9411764705882352, 0.9757785467128027], 'Austen_class_amphibious_transport_dock': [0.7096774193548387, 0.6111111111111112, 0.6567164179104478, 0.9602076124567474], 'Command_ship_A': [1.0, 0.5227272727272727, 0.6865671641791045, 0.9636678200692042], 'Container_ship_A': [0.40540540540540543, 1.0, 0.5769230769230769, 0.9238754325259516], 'Destroyer_Murasame': [0.3333333333333333, 0.7142857142857143, 0.4545454545454545, 0.9792387543252595], 'Nimitz_Enterprise_class_aircraft_carrier': [0.5777777777777777, 1.0, 0.732394366197183, 0.967128027681661], 'Perry_class_frigate': [0.9493670886075949, 0.78125, 0.8571428571428572, 0.9567474048442907], 'Sanantonio_class_amphibious_transport_dock': [0.9803921568627451, 0.43859649122807015, 0.6060606060606061, 0.8875432525951558], 'Tarawa-class_amphibious_assault_ship': [0.5952380952380952, 0.9615384615384616, 0.7352941176470588, 0.9688581314878892], 'Ticonderoga_class_cruiser': [0.9420289855072463, 0.9701492537313433, 0.9558823529411764, 0.9896193771626297], 'WhidbeyIsland_class_landing_craft': [0.68, 0.9444444444444444, 0.7906976744186047, 0.9844290657439446]}",/var/seda-datasets/1.DS_Terceros/1.1.RGB/HRSC2016/HRSC2016/CU-02/results/imgs/fsl/1-shot_1-novel_1-extra/20210909-111945_4.png
"[['Arleigh_Burke_class_destroyers', 'Austen_class_amphibious_transport_dock', 'Command_ship_A', 'Container_ship_A', 'Nimitz_Enterprise_class_aircraft_carrier', 'Perry_class_frigate', 'Tarawa-class_amphibious_assault_ship', 'Ticonderoga_class_cruiser', 'WhidbeyIsland_class_landing_craft'], ['Car_carrier_A'], ['Destroyer_Murasame']]",0.9919109344482422,"{'Arleigh_Burke_class_destroyers': [0.8629032258064516, 0.9727272727272728, 0.9145299145299146, 0.9640933572710951], 'Austen_class_amphibious_transport_dock': [0.8709677419354839, 0.75, 0.8059701492537312, 0.9766606822262118], 'Car_carrier_A': [0.5, 0.45454545454545453, 0.47619047619047616, 0.940754039497307], 'Command_ship_A': [0.9130434782608695, 0.8076923076923077, 0.8571428571428572, 0.9874326750448833], 'Container_ship_A': [0.6621621621621622, 0.8909090909090909, 0.7596899224806202, 0.9443447037701975], 'Destroyer_Murasame': [0.06666666666666667, 0.2, 0.1, 0.9676840215439856], 'Nimitz_Enterprise_class_aircraft_carrier': [1.0, 0.9574468085106383, 0.9782608695652174, 0.9964093357271095], 'Perry_class_frigate': [0.9367088607594937, 0.8409090909090909, 0.8862275449101796, 0.9658886894075404], 'Tarawa-class_amphibious_assault_ship': [1.0, 0.5753424657534246, 0.7304347826086955, 0.9443447037701975], 'Ticonderoga_class_cruiser': [0.4492753623188406, 0.96875, 0.6138613861386139, 0.9299820466786356], 'WhidbeyIsland_class_landing_craft': [0.88, 0.4230769230769231, 0.5714285714285714, 0.940754039497307]}",/var/seda-datasets/1.DS_Terceros/1.1.RGB/HRSC2016/HRSC2016/CU-02/results/imgs/fsl/1-shot_1-novel_1-extra/20210909-112058_5.png
"[['Arleigh_Burke_class_destroyers', 'Austen_class_amphibious_transport_dock', 'Command_ship_A', 'Container_ship_A', 'Nimitz_Enterprise_class_aircraft_carrier', 'Perry_class_frigate', 'Tarawa-class_amphibious_assault_ship', 'Ticonderoga_class_cruiser', 'WhidbeyIsland_class_landing_craft'], ['Car_carrier_A'], ['Destroyer_Murasame']]",1.7546231746673584,"{'Arleigh_Burke_class_destroyers': [0.9435483870967742, 0.936, 0.9397590361445783, 0.9730700179533214], 'Austen_class_amphibious_transport_dock': [0.6129032258064516, 0.7307692307692307, 0.6666666666666667, 0.9658886894075404], 'Car_carrier_A': [1.0, 0.24193548387096775, 0.38961038961038963, 0.8312387791741472], 'Command_ship_A': [0.9130434782608695, 0.5384615384615384, 0.6774193548387096, 0.9640933572710951], 'Container_ship_A': [0.10810810810810811, 1.0, 0.1951219512195122, 0.881508078994614], 'Destroyer_Murasame': [0.26666666666666666, 0.8, 0.4, 0.9784560143626571], 'Nimitz_Enterprise_class_aircraft_carrier': [0.9111111111111111, 1.0, 0.9534883720930233, 0.992818671454219], 'Perry_class_frigate': [0.3670886075949367, 0.9666666666666667, 0.5321100917431193, 0.9084380610412927], 'Tarawa-class_amphibious_assault_ship': [0.8571428571428571, 0.972972972972973, 0.9113924050632912, 0.9874326750448833], 'Ticonderoga_class_cruiser': [0.8115942028985508, 0.9824561403508771, 0.888888888888889, 0.9748653500897666], 'WhidbeyIsland_class_landing_craft': [0.88, 0.3384615384615385, 0.48888888888888893, 0.9174147217235189]}",/var/seda-datasets/1.DS_Terceros/1.1.RGB/HRSC2016/HRSC2016/CU-02/results/imgs/fsl/1-shot_1-novel_1-extra/20210909-112157_6.png
"[['Arleigh_Burke_class_destroyers', 'Austen_class_amphibious_transport_dock', 'Command_ship_A', 'Container_ship_A', 'Nimitz_Enterprise_class_aircraft_carrier', 'Perry_class_frigate', 'Tarawa-class_amphibious_assault_ship', 'Ticonderoga_class_cruiser', 'WhidbeyIsland_class_landing_craft'], ['Sanantonio_class_amphibious_transport_dock'], ['Minesweeper_Segura']]",1.7853946685791016,"{'Arleigh_Burke_class_destroyers': [0.8629032258064516, 0.963963963963964, 0.9106382978723404, 0.9637931034482758], 'Austen_class_amphibious_transport_dock': [0.12903225806451613, 0.2222222222222222, 0.16326530612244897, 0.9293103448275862], 'Command_ship_A': [0.9130434782608695, 0.8076923076923077, 0.8571428571428572, 0.9879310344827587], 'Container_ship_A': [0.32432432432432434, 1.0, 0.489795918367347, 0.9137931034482759], 'Minesweeper_Segura': [0.6470588235294118, 0.5789473684210527, 0.6111111111111113, 0.9758620689655172], 'Nimitz_Enterprise_class_aircraft_carrier': [0.9777777777777777, 0.8, 0.8800000000000001, 0.9793103448275862], 'Perry_class_frigate': [0.0, 0.0, nan, 0.8482758620689655], 'Sanantonio_class_amphibious_transport_dock': [0.9607843137254902, 0.30434782608695654, 0.46226415094339623, 0.803448275862069], 'Tarawa-class_amphibious_assault_ship': [0.8571428571428571, 0.9473684210526315, 0.9, 0.9862068965517241], 'Ticonderoga_class_cruiser': [0.5217391304347826, 1.0, 0.6857142857142856, 0.9431034482758621], 'WhidbeyIsland_class_landing_craft': [0.44, 0.13253012048192772, 0.20370370370370372, 0.8517241379310345]}",/var/seda-datasets/1.DS_Terceros/1.1.RGB/HRSC2016/HRSC2016/CU-02/results/imgs/fsl/1-shot_1-novel_1-extra/20210909-112332_7.png
"[['Arleigh_Burke_class_destroyers', 'Austen_class_amphibious_transport_dock', 'Command_ship_A', 'Container_ship_A', 'Nimitz_Enterprise_class_aircraft_carrier', 'Perry_class_frigate', 'Tarawa-class_amphibious_assault_ship', 'Ticonderoga_class_cruiser', 'WhidbeyIsland_class_landing_craft'], ['Container_ship'], ['Destroyer_Murasame']]",0.9619560241699219,"{'Arleigh_Burke_class_destroyers': [0.6451612903225806, 0.975609756097561, 0.7766990291262136, 0.9204152249134948], 'Austen_class_amphibious_transport_dock': [0.967741935483871, 0.7894736842105263, 0.8695652173913043, 0.9844290657439446], 'Command_ship_A': [1.0, 0.8214285714285714, 0.9019607843137255, 0.9913494809688581], 'Container_ship': [0.6666666666666666, 0.5666666666666667, 0.6126126126126126, 0.9256055363321799], 'Container_ship_A': [0.7432432432432432, 0.7638888888888888, 0.7534246575342465, 0.9377162629757786], 'Destroyer_Murasame': [0.5333333333333333, 0.11428571428571428, 0.18823529411764706, 0.8806228373702422], 'Nimitz_Enterprise_class_aircraft_carrier': [0.9333333333333333, 0.9333333333333333, 0.9333333333333333, 0.9896193771626297], 'Perry_class_frigate': [0.7974683544303798, 0.9402985074626866, 0.8630136986301371, 0.9653979238754326], 'Tarawa-class_amphibious_assault_ship': [0.8095238095238095, 0.7555555555555555, 0.7816091954022989, 0.967128027681661], 'Ticonderoga_class_cruiser': [0.5942028985507246, 0.9761904761904762, 0.7387387387387387, 0.9498269896193772], 'WhidbeyIsland_class_landing_craft': [0.92, 0.7931034482758621, 0.851851851851852, 0.986159169550173]}",/var/seda-datasets/1.DS_Terceros/1.1.RGB/HRSC2016/HRSC2016/CU-02/results/imgs/fsl/1-shot_1-novel_1-extra/20210909-112503_8.png
"[['Arleigh_Burke_class_destroyers', 'Austen_class_amphibious_transport_dock', 'Command_ship_A', 'Container_ship_A', 'Nimitz_Enterprise_class_aircraft_carrier', 'Perry_class_frigate', 'Tarawa-class_amphibious_assault_ship', 'Ticonderoga_class_cruiser', 'WhidbeyIsland_class_landing_craft'], ['Car_carrier_B'], ['Destroyer_Murasame']]",0.9698061943054199,"{'Arleigh_Burke_class_destroyers': [0.9596774193548387, 0.9596774193548387, 0.9596774193548389, 0.982363315696649], 'Austen_class_amphibious_transport_dock': [1.0, 0.8157894736842105, 0.898550724637681, 0.9876543209876543], 'Car_carrier_B': [0.4, 0.3404255319148936, 0.36781609195402304, 0.9029982363315696], 'Command_ship_A': [0.8695652173913043, 0.8333333333333334, 0.851063829787234, 0.9876543209876543], 'Container_ship_A': [0.7972972972972973, 0.6781609195402298, 0.732919254658385, 0.9241622574955908], 'Destroyer_Murasame': [0.4666666666666667, 0.7777777777777778, 0.5833333333333334, 0.982363315696649], 'Nimitz_Enterprise_class_aircraft_carrier': [0.9555555555555556, 0.9555555555555556, 0.9555555555555556, 0.9929453262786596], 'Perry_class_frigate': [0.9493670886075949, 0.7142857142857143, 0.8152173913043479, 0.9400352733686067], 'Tarawa-class_amphibious_assault_ship': [0.5714285714285714, 0.6666666666666666, 0.6153846153846153, 0.9470899470899471], 'Ticonderoga_class_cruiser': [0.4492753623188406, 0.96875, 0.6138613861386139, 0.9312169312169312], 'WhidbeyIsland_class_landing_craft': [0.76, 0.95, 0.8444444444444444, 0.9876543209876543]}",/var/seda-datasets/1.DS_Terceros/1.1.RGB/HRSC2016/HRSC2016/CU-02/results/imgs/fsl/1-shot_1-novel_1-extra/20210909-112636_9.png
