classes,trainning_duration,metrics_per_class,confusion_matrix_path
"[['Arleigh_Burke_class_destroyers', 'Austen_class_amphibious_transport_dock', 'Command_ship_A', 'Container_ship_A', 'Nimitz_Enterprise_class_aircraft_carrier', 'Perry_class_frigate', 'Tarawa-class_amphibious_assault_ship', 'Ticonderoga_class_cruiser', 'WhidbeyIsland_class_landing_craft'], ['Car_carrier_B', 'Car_carrier_A', 'Medical_ship', 'Sanantonio_class_amphibious_transport_dock', 'Container_ship'], ['Destroyer_Murasame', 'Minesweeper_Segura']]",12.827956199645996,"{'Arleigh_Burke_class_destroyers': [0.95, 0.957983193277311, 0.9539748953974896, 0.9837278106508875], 'Austen_class_amphibious_transport_dock': [0.9629629629629629, 0.7878787878787878, 0.8666666666666665, 0.9881656804733728], 'Car_carrier_A': [0.9615384615384616, 0.7575757575757576, 0.8474576271186441, 0.9866863905325444], 'Car_carrier_B': [0.9166666666666666, 0.717391304347826, 0.8048780487804877, 0.9763313609467456], 'Command_ship_A': [0.8947368421052632, 0.7727272727272727, 0.8292682926829269, 0.9896449704142012], 'Container_ship': [0.7659574468085106, 0.7058823529411765, 0.7346938775510204, 0.9615384615384616], 'Container_ship_A': [0.44285714285714284, 0.9393939393939394, 0.6019417475728155, 0.9393491124260355], 'Destroyer_Murasame': [0.6363636363636364, 0.4117647058823529, 0.5, 0.9792899408284024], 'Medical_ship': [0.95, 0.59375, 0.7307692307692308, 0.9792899408284024], 'Minesweeper_Segura': [1.0, 0.6842105263157895, 0.8125000000000001, 0.9911242603550295], 'Nimitz_Enterprise_class_aircraft_carrier': [1.0, 1.0, 1.0, 1.0], 'Perry_class_frigate': [0.92, 0.971830985915493, 0.9452054794520549, 0.9881656804733728], 'Sanantonio_class_amphibious_transport_dock': [0.8936170212765957, 1.0, 0.9438202247191011, 0.992603550295858], 'Tarawa-class_amphibious_assault_ship': [1.0, 0.7916666666666666, 0.8837209302325582, 0.985207100591716], 'Ticonderoga_class_cruiser': [0.6461538461538462, 0.9767441860465116, 0.7777777777777778, 0.9644970414201184], 'WhidbeyIsland_class_landing_craft': [0.8571428571428571, 0.6923076923076923, 0.7659574468085107, 0.9837278106508875]}",/var/seda-datasets/1.DS_Terceros/1.1.RGB/HRSC2016/HRSC2016/CU-02/results/imgs/fsl/5-shot_5-novel_2-extra/20210909-115531_0.png
"[['Arleigh_Burke_class_destroyers', 'Austen_class_amphibious_transport_dock', 'Command_ship_A', 'Container_ship_A', 'Nimitz_Enterprise_class_aircraft_carrier', 'Perry_class_frigate', 'Tarawa-class_amphibious_assault_ship', 'Ticonderoga_class_cruiser', 'WhidbeyIsland_class_landing_craft'], ['Container_ship', 'Medical_ship', 'Car_carrier_A', 'Car_carrier_B', 'Sanantonio_class_amphibious_transport_dock'], ['Minesweeper_Segura', 'Destroyer_Murasame']]",12.683446645736694,"{'Arleigh_Burke_class_destroyers': [0.9583333333333334, 0.9583333333333334, 0.9583333333333334, 0.985207100591716], 'Austen_class_amphibious_transport_dock': [0.9629629629629629, 0.9629629629629629, 0.9629629629629629, 0.9970414201183432], 'Car_carrier_A': [0.9230769230769231, 0.7741935483870968, 0.8421052631578947, 0.9866863905325444], 'Car_carrier_B': [0.7777777777777778, 0.7777777777777778, 0.7777777777777778, 0.9763313609467456], 'Command_ship_A': [0.8421052631578947, 0.8, 0.8205128205128205, 0.9896449704142012], 'Container_ship': [0.5106382978723404, 0.7058823529411765, 0.5925925925925926, 0.9511834319526628], 'Container_ship_A': [0.5, 0.5932203389830508, 0.5426356589147286, 0.9127218934911243], 'Destroyer_Murasame': [0.45454545454545453, 0.3125, 0.3703703703703703, 0.9748520710059172], 'Medical_ship': [1.0, 0.5, 0.6666666666666666, 0.9704142011834319], 'Minesweeper_Segura': [1.0, 0.5416666666666666, 0.7027027027027027, 0.9837278106508875], 'Nimitz_Enterprise_class_aircraft_carrier': [1.0, 1.0, 1.0, 1.0], 'Perry_class_frigate': [0.92, 0.9583333333333334, 0.9387755102040817, 0.9866863905325444], 'Sanantonio_class_amphibious_transport_dock': [0.9574468085106383, 0.8653846153846154, 0.9090909090909091, 0.9866863905325444], 'Tarawa-class_amphibious_assault_ship': [0.9736842105263158, 0.925, 0.9487179487179489, 0.9940828402366864], 'Ticonderoga_class_cruiser': [0.7076923076923077, 1.0, 0.8288288288288288, 0.9718934911242604], 'WhidbeyIsland_class_landing_craft': [0.8095238095238095, 0.9444444444444444, 0.8717948717948718, 0.992603550295858]}",/var/seda-datasets/1.DS_Terceros/1.1.RGB/HRSC2016/HRSC2016/CU-02/results/imgs/fsl/5-shot_5-novel_2-extra/20210909-115736_1.png
"[['Arleigh_Burke_class_destroyers', 'Austen_class_amphibious_transport_dock', 'Command_ship_A', 'Container_ship_A', 'Nimitz_Enterprise_class_aircraft_carrier', 'Perry_class_frigate', 'Tarawa-class_amphibious_assault_ship', 'Ticonderoga_class_cruiser', 'WhidbeyIsland_class_landing_craft'], ['Car_carrier_B', 'Sanantonio_class_amphibious_transport_dock', 'Car_carrier_A', 'Medical_ship', 'Container_ship'], ['Minesweeper_Segura', 'Destroyer_Murasame']]",7.102416753768921,"{'Arleigh_Burke_class_destroyers': [0.9333333333333333, 0.9655172413793104, 0.9491525423728815, 0.9822485207100592], 'Austen_class_amphibious_transport_dock': [1.0, 0.8181818181818182, 0.9, 0.9911242603550295], 'Car_carrier_A': [0.9230769230769231, 0.6486486486486487, 0.7619047619047619, 0.977810650887574], 'Car_carrier_B': [0.8611111111111112, 0.775, 0.8157894736842106, 0.9792899408284024], 'Command_ship_A': [0.8947368421052632, 0.85, 0.8717948717948718, 0.992603550295858], 'Container_ship': [0.723404255319149, 0.7555555555555555, 0.7391304347826088, 0.9644970414201184], 'Container_ship_A': [0.5, 0.7142857142857143, 0.588235294117647, 0.9275147928994083], 'Destroyer_Murasame': [0.36363636363636365, 0.5, 0.4210526315789474, 0.9837278106508875], 'Medical_ship': [0.65, 0.5416666666666666, 0.5909090909090908, 0.9733727810650887], 'Minesweeper_Segura': [1.0, 0.52, 0.6842105263157895, 0.9822485207100592], 'Nimitz_Enterprise_class_aircraft_carrier': [0.9024390243902439, 1.0, 0.9487179487179488, 0.9940828402366864], 'Perry_class_frigate': [0.8933333333333333, 0.9852941176470589, 0.9370629370629371, 0.9866863905325444], 'Sanantonio_class_amphibious_transport_dock': [0.9361702127659575, 0.9166666666666666, 0.9263157894736843, 0.9896449704142012], 'Tarawa-class_amphibious_assault_ship': [0.9736842105263158, 0.8604651162790697, 0.9135802469135803, 0.9896449704142012], 'Ticonderoga_class_cruiser': [0.8923076923076924, 1.0, 0.9430894308943091, 0.9896449704142012], 'WhidbeyIsland_class_landing_craft': [0.9047619047619048, 0.76, 0.8260869565217391, 0.9881656804733728]}",/var/seda-datasets/1.DS_Terceros/1.1.RGB/HRSC2016/HRSC2016/CU-02/results/imgs/fsl/5-shot_5-novel_2-extra/20210909-115935_2.png
"[['Arleigh_Burke_class_destroyers', 'Austen_class_amphibious_transport_dock', 'Command_ship_A', 'Container_ship_A', 'Nimitz_Enterprise_class_aircraft_carrier', 'Perry_class_frigate', 'Tarawa-class_amphibious_assault_ship', 'Ticonderoga_class_cruiser', 'WhidbeyIsland_class_landing_craft'], ['Car_carrier_A', 'Car_carrier_B', 'Sanantonio_class_amphibious_transport_dock', 'Container_ship', 'Medical_ship'], ['Destroyer_Murasame', 'Minesweeper_Segura']]",6.985619306564331,"{'Arleigh_Burke_class_destroyers': [0.9416666666666667, 0.9658119658119658, 0.9535864978902954, 0.9837278106508875], 'Austen_class_amphibious_transport_dock': [0.8518518518518519, 0.8846153846153846, 0.8679245283018868, 0.9896449704142012], 'Car_carrier_A': [0.9615384615384616, 0.78125, 0.8620689655172413, 0.9881656804733728], 'Car_carrier_B': [0.8888888888888888, 0.7619047619047619, 0.8205128205128205, 0.9792899408284024], 'Command_ship_A': [0.8421052631578947, 0.8, 0.8205128205128205, 0.9896449704142012], 'Container_ship': [0.7872340425531915, 0.8043478260869565, 0.795698924731183, 0.9718934911242604], 'Container_ship_A': [0.4857142857142857, 0.8292682926829268, 0.6126126126126126, 0.9363905325443787], 'Destroyer_Murasame': [0.9090909090909091, 0.5, 0.6451612903225806, 0.9837278106508875], 'Medical_ship': [1.0, 0.5263157894736842, 0.6896551724137931, 0.9733727810650887], 'Minesweeper_Segura': [1.0, 0.5416666666666666, 0.7027027027027027, 0.9837278106508875], 'Nimitz_Enterprise_class_aircraft_carrier': [1.0, 1.0, 1.0, 1.0], 'Perry_class_frigate': [0.8933333333333333, 0.9710144927536232, 0.9305555555555556, 0.985207100591716], 'Sanantonio_class_amphibious_transport_dock': [0.8936170212765957, 0.9767441860465116, 0.9333333333333332, 0.9911242603550295], 'Tarawa-class_amphibious_assault_ship': [1.0, 0.926829268292683, 0.9620253164556963, 0.9955621301775148], 'Ticonderoga_class_cruiser': [0.8, 0.9629629629629629, 0.8739495798319328, 0.977810650887574], 'WhidbeyIsland_class_landing_craft': [0.8571428571428571, 0.8181818181818182, 0.8372093023255814, 0.9896449704142012]}",/var/seda-datasets/1.DS_Terceros/1.1.RGB/HRSC2016/HRSC2016/CU-02/results/imgs/fsl/5-shot_5-novel_2-extra/20210909-120046_3.png
"[['Arleigh_Burke_class_destroyers', 'Austen_class_amphibious_transport_dock', 'Command_ship_A', 'Container_ship_A', 'Nimitz_Enterprise_class_aircraft_carrier', 'Perry_class_frigate', 'Tarawa-class_amphibious_assault_ship', 'Ticonderoga_class_cruiser', 'WhidbeyIsland_class_landing_craft'], ['Medical_ship', 'Container_ship', 'Car_carrier_A', 'Sanantonio_class_amphibious_transport_dock', 'Car_carrier_B'], ['Minesweeper_Segura', 'Destroyer_Murasame']]",6.775726318359375,"{'Arleigh_Burke_class_destroyers': [0.95, 0.9661016949152542, 0.957983193277311, 0.985207100591716], 'Austen_class_amphibious_transport_dock': [0.9629629629629629, 0.7647058823529411, 0.8524590163934426, 0.9866863905325444], 'Car_carrier_A': [0.9615384615384616, 0.7352941176470589, 0.8333333333333333, 0.985207100591716], 'Car_carrier_B': [1.0, 0.6792452830188679, 0.8089887640449438, 0.9748520710059172], 'Command_ship_A': [0.8947368421052632, 0.85, 0.8717948717948718, 0.992603550295858], 'Container_ship': [0.8297872340425532, 0.75, 0.787878787878788, 0.9689349112426036], 'Container_ship_A': [0.4142857142857143, 0.90625, 0.5686274509803921, 0.9349112426035503], 'Destroyer_Murasame': [0.6363636363636364, 0.6363636363636364, 0.6363636363636364, 0.9881656804733728], 'Medical_ship': [1.0, 0.625, 0.7692307692307693, 0.9822485207100592], 'Minesweeper_Segura': [1.0, 0.52, 0.6842105263157895, 0.9822485207100592], 'Nimitz_Enterprise_class_aircraft_carrier': [0.975609756097561, 1.0, 0.9876543209876543, 0.9985207100591716], 'Perry_class_frigate': [0.9333333333333333, 0.8235294117647058, 0.8749999999999999, 0.9704142011834319], 'Sanantonio_class_amphibious_transport_dock': [0.8936170212765957, 0.9767441860465116, 0.9333333333333332, 0.9911242603550295], 'Tarawa-class_amphibious_assault_ship': [0.9210526315789473, 1.0, 0.958904109589041, 0.9955621301775148], 'Ticonderoga_class_cruiser': [0.6461538461538462, 0.9545454545454546, 0.7706422018348624, 0.9630177514792899], 'WhidbeyIsland_class_landing_craft': [0.7619047619047619, 0.8888888888888888, 0.8205128205128205, 0.9896449704142012]}",/var/seda-datasets/1.DS_Terceros/1.1.RGB/HRSC2016/HRSC2016/CU-02/results/imgs/fsl/5-shot_5-novel_2-extra/20210909-120157_4.png
"[['Arleigh_Burke_class_destroyers', 'Austen_class_amphibious_transport_dock', 'Command_ship_A', 'Container_ship_A', 'Nimitz_Enterprise_class_aircraft_carrier', 'Perry_class_frigate', 'Tarawa-class_amphibious_assault_ship', 'Ticonderoga_class_cruiser', 'WhidbeyIsland_class_landing_craft'], ['Car_carrier_A', 'Car_carrier_B', 'Container_ship', 'Sanantonio_class_amphibious_transport_dock', 'Medical_ship'], ['Destroyer_Murasame', 'Minesweeper_Segura']]",6.713639736175537,"{'Arleigh_Burke_class_destroyers': [0.9416666666666667, 0.9658119658119658, 0.9535864978902954, 0.9837278106508875], 'Austen_class_amphibious_transport_dock': [0.9259259259259259, 0.9615384615384616, 0.9433962264150944, 0.9955621301775148], 'Car_carrier_A': [0.9615384615384616, 0.7142857142857143, 0.819672131147541, 0.9837278106508875], 'Car_carrier_B': [0.75, 0.8181818181818182, 0.7826086956521738, 0.977810650887574], 'Command_ship_A': [0.9473684210526315, 0.9, 0.9230769230769231, 0.9955621301775148], 'Container_ship': [0.851063829787234, 0.7272727272727273, 0.7843137254901961, 0.9674556213017751], 'Container_ship_A': [0.5571428571428572, 0.8863636363636364, 0.6842105263157894, 0.9467455621301775], 'Destroyer_Murasame': [0.6363636363636364, 0.5, 0.56, 0.9837278106508875], 'Medical_ship': [1.0, 0.625, 0.7692307692307693, 0.9822485207100592], 'Minesweeper_Segura': [1.0, 0.65, 0.787878787878788, 0.9896449704142012], 'Nimitz_Enterprise_class_aircraft_carrier': [1.0, 1.0, 1.0, 1.0], 'Perry_class_frigate': [0.92, 0.971830985915493, 0.9452054794520549, 0.9881656804733728], 'Sanantonio_class_amphibious_transport_dock': [0.9787234042553191, 0.9019607843137255, 0.9387755102040817, 0.9911242603550295], 'Tarawa-class_amphibious_assault_ship': [0.9736842105263158, 0.8222222222222222, 0.891566265060241, 0.9866863905325444], 'Ticonderoga_class_cruiser': [0.7076923076923077, 0.9583333333333334, 0.8141592920353983, 0.9689349112426036], 'WhidbeyIsland_class_landing_craft': [0.8571428571428571, 0.75, 0.7999999999999999, 0.9866863905325444]}",/var/seda-datasets/1.DS_Terceros/1.1.RGB/HRSC2016/HRSC2016/CU-02/results/imgs/fsl/5-shot_5-novel_2-extra/20210909-120307_5.png
"[['Arleigh_Burke_class_destroyers', 'Austen_class_amphibious_transport_dock', 'Command_ship_A', 'Container_ship_A', 'Nimitz_Enterprise_class_aircraft_carrier', 'Perry_class_frigate', 'Tarawa-class_amphibious_assault_ship', 'Ticonderoga_class_cruiser', 'WhidbeyIsland_class_landing_craft'], ['Car_carrier_B', 'Car_carrier_A', 'Medical_ship', 'Container_ship', 'Sanantonio_class_amphibious_transport_dock'], ['Minesweeper_Segura', 'Destroyer_Murasame']]",6.652894973754883,"{'Arleigh_Burke_class_destroyers': [0.9583333333333334, 0.9583333333333334, 0.9583333333333334, 0.985207100591716], 'Austen_class_amphibious_transport_dock': [0.9629629629629629, 0.7428571428571429, 0.8387096774193549, 0.985207100591716], 'Car_carrier_A': [0.9615384615384616, 0.6578947368421053, 0.78125, 0.9792899408284024], 'Car_carrier_B': [0.8611111111111112, 0.9117647058823529, 0.8857142857142858, 0.9881656804733728], 'Command_ship_A': [0.8421052631578947, 0.8421052631578947, 0.8421052631578947, 0.9911242603550295], 'Container_ship': [0.8297872340425532, 0.7222222222222222, 0.7722772277227723, 0.9659763313609467], 'Container_ship_A': [0.5571428571428572, 0.9069767441860465, 0.6902654867256637, 0.9482248520710059], 'Destroyer_Murasame': [0.7272727272727273, 0.5333333333333333, 0.6153846153846153, 0.985207100591716], 'Medical_ship': [0.95, 0.5428571428571428, 0.6909090909090908, 0.9748520710059172], 'Minesweeper_Segura': [0.7692307692307693, 0.5, 0.6060606060606061, 0.9807692307692307], 'Nimitz_Enterprise_class_aircraft_carrier': [0.975609756097561, 1.0, 0.9876543209876543, 0.9985207100591716], 'Perry_class_frigate': [0.92, 0.971830985915493, 0.9452054794520549, 0.9881656804733728], 'Sanantonio_class_amphibious_transport_dock': [0.8723404255319149, 0.9761904761904762, 0.9213483146067415, 0.9896449704142012], 'Tarawa-class_amphibious_assault_ship': [0.9736842105263158, 0.8604651162790697, 0.9135802469135803, 0.9896449704142012], 'Ticonderoga_class_cruiser': [0.7538461538461538, 0.9607843137254902, 0.8448275862068965, 0.9733727810650887], 'WhidbeyIsland_class_landing_craft': [0.7619047619047619, 1.0, 0.8648648648648648, 0.992603550295858]}",/var/seda-datasets/1.DS_Terceros/1.1.RGB/HRSC2016/HRSC2016/CU-02/results/imgs/fsl/5-shot_5-novel_2-extra/20210909-120415_6.png
"[['Arleigh_Burke_class_destroyers', 'Austen_class_amphibious_transport_dock', 'Command_ship_A', 'Container_ship_A', 'Nimitz_Enterprise_class_aircraft_carrier', 'Perry_class_frigate', 'Tarawa-class_amphibious_assault_ship', 'Ticonderoga_class_cruiser', 'WhidbeyIsland_class_landing_craft'], ['Medical_ship', 'Container_ship', 'Car_carrier_A', 'Car_carrier_B', 'Sanantonio_class_amphibious_transport_dock'], ['Minesweeper_Segura', 'Destroyer_Murasame']]",6.949117660522461,"{'Arleigh_Burke_class_destroyers': [0.95, 0.9661016949152542, 0.957983193277311, 0.985207100591716], 'Austen_class_amphibious_transport_dock': [1.0, 0.8709677419354839, 0.9310344827586207, 0.9940828402366864], 'Car_carrier_A': [0.9615384615384616, 0.5, 0.6578947368421052, 0.9615384615384616], 'Car_carrier_B': [0.7777777777777778, 0.7368421052631579, 0.7567567567567567, 0.9733727810650887], 'Command_ship_A': [0.8947368421052632, 0.85, 0.8717948717948718, 0.992603550295858], 'Container_ship': [0.7446808510638298, 0.6862745098039216, 0.7142857142857144, 0.9585798816568047], 'Container_ship_A': [0.35714285714285715, 0.9259259259259259, 0.5154639175257733, 0.9304733727810651], 'Destroyer_Murasame': [0.8181818181818182, 0.5294117647058824, 0.6428571428571428, 0.985207100591716], 'Medical_ship': [0.95, 0.5588235294117647, 0.7037037037037037, 0.9763313609467456], 'Minesweeper_Segura': [1.0, 0.5909090909090909, 0.7428571428571429, 0.9866863905325444], 'Nimitz_Enterprise_class_aircraft_carrier': [0.975609756097561, 1.0, 0.9876543209876543, 0.9985207100591716], 'Perry_class_frigate': [0.9066666666666666, 0.9714285714285714, 0.9379310344827586, 0.9866863905325444], 'Sanantonio_class_amphibious_transport_dock': [0.9574468085106383, 0.9574468085106383, 0.9574468085106385, 0.9940828402366864], 'Tarawa-class_amphibious_assault_ship': [0.9736842105263158, 0.8809523809523809, 0.925, 0.9911242603550295], 'Ticonderoga_class_cruiser': [0.7538461538461538, 0.9423076923076923, 0.8376068376068375, 0.9718934911242604], 'WhidbeyIsland_class_landing_craft': [0.8095238095238095, 1.0, 0.8947368421052632, 0.9940828402366864]}",/var/seda-datasets/1.DS_Terceros/1.1.RGB/HRSC2016/HRSC2016/CU-02/results/imgs/fsl/5-shot_5-novel_2-extra/20210909-120524_7.png
"[['Arleigh_Burke_class_destroyers', 'Austen_class_amphibious_transport_dock', 'Command_ship_A', 'Container_ship_A', 'Nimitz_Enterprise_class_aircraft_carrier', 'Perry_class_frigate', 'Tarawa-class_amphibious_assault_ship', 'Ticonderoga_class_cruiser', 'WhidbeyIsland_class_landing_craft'], ['Car_carrier_A', 'Car_carrier_B', 'Container_ship', 'Medical_ship', 'Sanantonio_class_amphibious_transport_dock'], ['Destroyer_Murasame', 'Minesweeper_Segura']]",6.956864356994629,"{'Arleigh_Burke_class_destroyers': [0.9583333333333334, 0.9583333333333334, 0.9583333333333334, 0.985207100591716], 'Austen_class_amphibious_transport_dock': [0.9629629629629629, 0.8387096774193549, 0.896551724137931, 0.9911242603550295], 'Car_carrier_A': [0.9615384615384616, 0.6410256410256411, 0.7692307692307693, 0.977810650887574], 'Car_carrier_B': [0.8333333333333334, 0.75, 0.7894736842105262, 0.9763313609467456], 'Command_ship_A': [0.8947368421052632, 0.7727272727272727, 0.8292682926829269, 0.9896449704142012], 'Container_ship': [0.7872340425531915, 0.6379310344827587, 0.7047619047619048, 0.9541420118343196], 'Container_ship_A': [0.4142857142857143, 0.90625, 0.5686274509803921, 0.9349112426035503], 'Destroyer_Murasame': [0.36363636363636365, 1.0, 0.5333333333333333, 0.9896449704142012], 'Medical_ship': [1.0, 0.6666666666666666, 0.8, 0.985207100591716], 'Minesweeper_Segura': [0.9230769230769231, 0.8, 0.8571428571428571, 0.9940828402366864], 'Nimitz_Enterprise_class_aircraft_carrier': [0.975609756097561, 1.0, 0.9876543209876543, 0.9985207100591716], 'Perry_class_frigate': [0.92, 0.971830985915493, 0.9452054794520549, 0.9881656804733728], 'Sanantonio_class_amphibious_transport_dock': [0.9574468085106383, 0.8490566037735849, 0.9, 0.985207100591716], 'Tarawa-class_amphibious_assault_ship': [0.9736842105263158, 0.925, 0.9487179487179489, 0.9940828402366864], 'Ticonderoga_class_cruiser': [0.9384615384615385, 1.0, 0.9682539682539683, 0.9940828402366864], 'WhidbeyIsland_class_landing_craft': [0.8095238095238095, 0.85, 0.8292682926829269, 0.9896449704142012]}",/var/seda-datasets/1.DS_Terceros/1.1.RGB/HRSC2016/HRSC2016/CU-02/results/imgs/fsl/5-shot_5-novel_2-extra/20210909-120634_8.png
"[['Arleigh_Burke_class_destroyers', 'Austen_class_amphibious_transport_dock', 'Command_ship_A', 'Container_ship_A', 'Nimitz_Enterprise_class_aircraft_carrier', 'Perry_class_frigate', 'Tarawa-class_amphibious_assault_ship', 'Ticonderoga_class_cruiser', 'WhidbeyIsland_class_landing_craft'], ['Car_carrier_A', 'Car_carrier_B', 'Sanantonio_class_amphibious_transport_dock', 'Container_ship', 'Medical_ship'], ['Minesweeper_Segura', 'Destroyer_Murasame']]",6.941636323928833,"{'Arleigh_Burke_class_destroyers': [0.95, 0.9661016949152542, 0.957983193277311, 0.985207100591716], 'Austen_class_amphibious_transport_dock': [0.8518518518518519, 0.9583333333333334, 0.9019607843137256, 0.992603550295858], 'Car_carrier_A': [0.9230769230769231, 0.6486486486486487, 0.7619047619047619, 0.977810650887574], 'Car_carrier_B': [0.8611111111111112, 0.7380952380952381, 0.7948717948717949, 0.9763313609467456], 'Command_ship_A': [0.8421052631578947, 0.8, 0.8205128205128205, 0.9896449704142012], 'Container_ship': [0.8085106382978723, 0.8260869565217391, 0.8172043010752688, 0.9748520710059172], 'Container_ship_A': [0.5, 0.9210526315789473, 0.6481481481481481, 0.9437869822485208], 'Destroyer_Murasame': [0.36363636363636365, 0.6666666666666666, 0.4705882352941177, 0.9866863905325444], 'Medical_ship': [1.0, 0.4878048780487805, 0.6557377049180327, 0.9689349112426036], 'Minesweeper_Segura': [1.0, 0.5416666666666666, 0.7027027027027027, 0.9837278106508875], 'Nimitz_Enterprise_class_aircraft_carrier': [0.975609756097561, 1.0, 0.9876543209876543, 0.9985207100591716], 'Perry_class_frigate': [0.92, 0.9857142857142858, 0.9517241379310346, 0.9896449704142012], 'Sanantonio_class_amphibious_transport_dock': [0.8936170212765957, 0.9767441860465116, 0.9333333333333332, 0.9911242603550295], 'Tarawa-class_amphibious_assault_ship': [0.9736842105263158, 0.9736842105263158, 0.9736842105263158, 0.9970414201183432], 'Ticonderoga_class_cruiser': [0.8153846153846154, 0.9636363636363636, 0.8833333333333333, 0.9792899408284024], 'WhidbeyIsland_class_landing_craft': [0.9047619047619048, 0.5588235294117647, 0.6909090909090908, 0.9748520710059172]}",/var/seda-datasets/1.DS_Terceros/1.1.RGB/HRSC2016/HRSC2016/CU-02/results/imgs/fsl/5-shot_5-novel_2-extra/20210909-120744_9.png
