classes,trainning_duration,metrics_per_class,confusion_matrix_path
"[['Arleigh_Burke_class_destroyers', 'Austen_class_amphibious_transport_dock', 'Command_ship_A', 'Container_ship_A', 'Nimitz_Enterprise_class_aircraft_carrier', 'Perry_class_frigate', 'Tarawa-class_amphibious_assault_ship', 'Ticonderoga_class_cruiser', 'WhidbeyIsland_class_landing_craft'], ['Car_carrier_A', 'Car_carrier_B', 'Medical_ship', 'Sanantonio_class_amphibious_transport_dock', 'Container_ship'], ['Destroyer_Murasame', 'Minesweeper_Segura']]",1105.2653200626373,"{'Arleigh_Burke_class_destroyers': [0.967741935483871, 0.9375, 0.9523809523809523, 0.984], 'Austen_class_amphibious_transport_dock': [0.9375, 0.8823529411764706, 0.9090909090909091, 0.992], 'Car_carrier_A': [0.9333333333333333, 0.45161290322580644, 0.608695652173913, 0.952], 'Car_carrier_B': [0.7, 0.4827586206896552, 0.5714285714285714, 0.944], 'Command_ship_A': [0.8333333333333334, 0.7692307692307693, 0.8, 0.9866666666666667], 'Container_ship': [0.19230769230769232, 1.0, 0.32258064516129037, 0.944], 'Container_ship_A': [0.2972972972972973, 0.6875, 0.41509433962264153, 0.9173333333333333], 'Destroyer_Murasame': [0.375, 1.0, 0.5454545454545454, 0.9866666666666667], 'Medical_ship': [0.8333333333333334, 0.3448275862068966, 0.4878048780487806, 0.944], 'Minesweeper_Segura': [0.7777777777777778, 0.5, 0.6086956521739131, 0.976], 'Nimitz_Enterprise_class_aircraft_carrier': [1.0, 1.0, 1.0, 1.0], 'Perry_class_frigate': [0.95, 0.9743589743589743, 0.9620253164556962, 0.992], 'Sanantonio_class_amphibious_transport_dock': [0.8846153846153846, 0.9583333333333334, 0.9199999999999999, 0.9893333333333333], 'Tarawa-class_amphibious_assault_ship': [0.7619047619047619, 0.9411764705882353, 0.8421052631578947, 0.984], 'Ticonderoga_class_cruiser': [0.9142857142857143, 0.8888888888888888, 0.9014084507042254, 0.9813333333333333], 'WhidbeyIsland_class_landing_craft': [1.0, 0.8666666666666667, 0.9285714285714286, 0.9946666666666667]}",/var/seda-datasets/1.DS_Terceros/1.1.RGB/HRSC2016/HRSC2016/CU-02/results/imgs/cnn/1-shot_5-novel_2-extra/20210904-183638_0.png
"[['Arleigh_Burke_class_destroyers', 'Austen_class_amphibious_transport_dock', 'Command_ship_A', 'Container_ship_A', 'Nimitz_Enterprise_class_aircraft_carrier', 'Perry_class_frigate', 'Tarawa-class_amphibious_assault_ship', 'Ticonderoga_class_cruiser', 'WhidbeyIsland_class_landing_craft'], ['Car_carrier_B', 'Sanantonio_class_amphibious_transport_dock', 'Car_carrier_A', 'Container_ship', 'Medical_ship'], ['Destroyer_Murasame', 'Minesweeper_Segura']]",1045.9459397792816,"{'Arleigh_Burke_class_destroyers': [0.9838709677419355, 0.953125, 0.9682539682539683, 0.9893333333333333], 'Austen_class_amphibious_transport_dock': [0.875, 0.9333333333333333, 0.9032258064516129, 0.992], 'Car_carrier_A': [0.8666666666666667, 0.8666666666666667, 0.8666666666666667, 0.9893333333333333], 'Car_carrier_B': [0.6, 0.8571428571428571, 0.7058823529411764, 0.9733333333333334], 'Command_ship_A': [1.0, 0.8, 0.888888888888889, 0.992], 'Container_ship': [0.7692307692307693, 0.5882352941176471, 0.6666666666666667, 0.9466666666666667], 'Container_ship_A': [0.16216216216216217, 0.75, 0.26666666666666666, 0.912], 'Destroyer_Murasame': [0.625, 0.625, 0.625, 0.984], 'Medical_ship': [0.75, 0.34615384615384615, 0.4736842105263157, 0.9466666666666667], 'Minesweeper_Segura': [0.8888888888888888, 0.6153846153846154, 0.7272727272727274, 0.984], 'Nimitz_Enterprise_class_aircraft_carrier': [1.0, 0.9583333333333334, 0.9787234042553191, 0.9973333333333333], 'Perry_class_frigate': [0.95, 0.95, 0.9500000000000001, 0.9893333333333333], 'Sanantonio_class_amphibious_transport_dock': [0.7692307692307693, 0.8, 0.7843137254901961, 0.9706666666666667], 'Tarawa-class_amphibious_assault_ship': [0.9523809523809523, 0.7692307692307693, 0.8510638297872339, 0.9813333333333333], 'Ticonderoga_class_cruiser': [0.9714285714285714, 0.9714285714285714, 0.9714285714285714, 0.9946666666666667], 'WhidbeyIsland_class_landing_craft': [0.7692307692307693, 0.7692307692307693, 0.7692307692307693, 0.984]}",/var/seda-datasets/1.DS_Terceros/1.1.RGB/HRSC2016/HRSC2016/CU-02/results/imgs/cnn/1-shot_5-novel_2-extra/20210904-185634_1.png
"[['Arleigh_Burke_class_destroyers', 'Austen_class_amphibious_transport_dock', 'Command_ship_A', 'Container_ship_A', 'Nimitz_Enterprise_class_aircraft_carrier', 'Perry_class_frigate', 'Tarawa-class_amphibious_assault_ship', 'Ticonderoga_class_cruiser', 'WhidbeyIsland_class_landing_craft'], ['Container_ship', 'Sanantonio_class_amphibious_transport_dock', 'Car_carrier_B', 'Medical_ship', 'Car_carrier_A'], ['Minesweeper_Segura', 'Destroyer_Murasame']]",1041.9276781082153,"{'Arleigh_Burke_class_destroyers': [0.9838709677419355, 0.9384615384615385, 0.9606299212598426, 0.9866666666666667], 'Austen_class_amphibious_transport_dock': [0.9375, 0.9375, 0.9375, 0.9946666666666667], 'Car_carrier_A': [0.8666666666666667, 0.6190476190476191, 0.7222222222222222, 0.9733333333333334], 'Car_carrier_B': [0.7, 0.5185185185185185, 0.5957446808510639, 0.9493333333333334], 'Command_ship_A': [0.08333333333333333, 0.14285714285714285, 0.10526315789473685, 0.9546666666666667], 'Container_ship': [0.8076923076923077, 0.7241379310344828, 0.7636363636363636, 0.9653333333333334], 'Container_ship_A': [0.1891891891891892, 1.0, 0.3181818181818182, 0.92], 'Destroyer_Murasame': [0.875, 0.5384615384615384, 0.6666666666666667, 0.9813333333333333], 'Medical_ship': [1.0, 0.6666666666666666, 0.8, 0.984], 'Minesweeper_Segura': [0.7777777777777778, 0.4666666666666667, 0.5833333333333334, 0.9733333333333334], 'Nimitz_Enterprise_class_aircraft_carrier': [1.0, 0.9583333333333334, 0.9787234042553191, 0.9973333333333333], 'Perry_class_frigate': [0.8, 0.9142857142857143, 0.8533333333333333, 0.9706666666666667], 'Sanantonio_class_amphibious_transport_dock': [0.9230769230769231, 0.75, 0.8275862068965517, 0.9733333333333334], 'Tarawa-class_amphibious_assault_ship': [0.9523809523809523, 0.8695652173913043, 0.909090909090909, 0.9893333333333333], 'Ticonderoga_class_cruiser': [0.9142857142857143, 0.9696969696969697, 0.9411764705882354, 0.9893333333333333], 'WhidbeyIsland_class_landing_craft': [0.7692307692307693, 1.0, 0.8695652173913044, 0.992]}",/var/seda-datasets/1.DS_Terceros/1.1.RGB/HRSC2016/HRSC2016/CU-02/results/imgs/cnn/1-shot_5-novel_2-extra/20210904-191531_2.png
"[['Arleigh_Burke_class_destroyers', 'Austen_class_amphibious_transport_dock', 'Command_ship_A', 'Container_ship_A', 'Nimitz_Enterprise_class_aircraft_carrier', 'Perry_class_frigate', 'Tarawa-class_amphibious_assault_ship', 'Ticonderoga_class_cruiser', 'WhidbeyIsland_class_landing_craft'], ['Car_carrier_B', 'Medical_ship', 'Container_ship', 'Car_carrier_A', 'Sanantonio_class_amphibious_transport_dock'], ['Minesweeper_Segura', 'Destroyer_Murasame']]",1044.398502111435,"{'Arleigh_Burke_class_destroyers': [0.9838709677419355, 0.9838709677419355, 0.9838709677419355, 0.9946666666666667], 'Austen_class_amphibious_transport_dock': [1.0, 0.9411764705882353, 0.9696969696969697, 0.9973333333333333], 'Car_carrier_A': [1.0, 0.6818181818181818, 0.8108108108108109, 0.9813333333333333], 'Car_carrier_B': [1.0, 0.9090909090909091, 0.9523809523809523, 0.9946666666666667], 'Command_ship_A': [0.0, 0.0, nan, 0.9653333333333334], 'Container_ship': [0.6153846153846154, 0.5333333333333333, 0.5714285714285715, 0.936], 'Container_ship_A': [0.3783783783783784, 0.7777777777777778, 0.5090909090909091, 0.928], 'Destroyer_Murasame': [1.0, 0.7272727272727273, 0.8421052631578948, 0.992], 'Medical_ship': [0.8333333333333334, 0.6666666666666666, 0.7407407407407408, 0.9813333333333333], 'Minesweeper_Segura': [0.6666666666666666, 0.6666666666666666, 0.6666666666666666, 0.984], 'Nimitz_Enterprise_class_aircraft_carrier': [1.0, 0.8214285714285714, 0.9019607843137255, 0.9866666666666667], 'Perry_class_frigate': [0.925, 0.9736842105263158, 0.9487179487179489, 0.9893333333333333], 'Sanantonio_class_amphibious_transport_dock': [0.8846153846153846, 0.696969696969697, 0.7796610169491526, 0.9653333333333334], 'Tarawa-class_amphibious_assault_ship': [1.0, 0.9545454545454546, 0.9767441860465117, 0.9973333333333333], 'Ticonderoga_class_cruiser': [0.9714285714285714, 1.0, 0.9855072463768115, 0.9973333333333333], 'WhidbeyIsland_class_landing_craft': [0.9230769230769231, 0.9230769230769231, 0.9230769230769231, 0.9946666666666667]}",/var/seda-datasets/1.DS_Terceros/1.1.RGB/HRSC2016/HRSC2016/CU-02/results/imgs/cnn/1-shot_5-novel_2-extra/20210904-193424_3.png
"[['Arleigh_Burke_class_destroyers', 'Austen_class_amphibious_transport_dock', 'Command_ship_A', 'Container_ship_A', 'Nimitz_Enterprise_class_aircraft_carrier', 'Perry_class_frigate', 'Tarawa-class_amphibious_assault_ship', 'Ticonderoga_class_cruiser', 'WhidbeyIsland_class_landing_craft'], ['Sanantonio_class_amphibious_transport_dock', 'Medical_ship', 'Car_carrier_A', 'Car_carrier_B', 'Container_ship'], ['Minesweeper_Segura', 'Destroyer_Murasame']]",1044.824007511139,"{'Arleigh_Burke_class_destroyers': [0.9838709677419355, 0.9682539682539683, 0.976, 0.992], 'Austen_class_amphibious_transport_dock': [0.75, 0.7058823529411765, 0.7272727272727272, 0.976], 'Car_carrier_A': [0.5333333333333333, 0.6666666666666666, 0.5925925925925926, 0.9706666666666667], 'Car_carrier_B': [0.45, 0.5625, 0.5, 0.952], 'Command_ship_A': [0.8333333333333334, 0.7692307692307693, 0.8, 0.9866666666666667], 'Container_ship': [0.7307692307692307, 0.6333333333333333, 0.6785714285714285, 0.952], 'Container_ship_A': [0.05405405405405406, 0.2857142857142857, 0.09090909090909091, 0.8933333333333333], 'Destroyer_Murasame': [0.5, 0.8, 0.6153846153846154, 0.9866666666666667], 'Medical_ship': [0.9166666666666666, 0.25, 0.3928571428571429, 0.9093333333333333], 'Minesweeper_Segura': [0.3333333333333333, 0.6, 0.42857142857142855, 0.9786666666666667], 'Nimitz_Enterprise_class_aircraft_carrier': [1.0, 0.8846153846153846, 0.9387755102040816, 0.992], 'Perry_class_frigate': [0.875, 0.9210526315789473, 0.8974358974358975, 0.9786666666666667], 'Sanantonio_class_amphibious_transport_dock': [0.9230769230769231, 0.6857142857142857, 0.7868852459016394, 0.9653333333333334], 'Tarawa-class_amphibious_assault_ship': [0.8095238095238095, 0.9444444444444444, 0.8717948717948718, 0.9866666666666667], 'Ticonderoga_class_cruiser': [0.9428571428571428, 1.0, 0.9705882352941176, 0.9946666666666667], 'WhidbeyIsland_class_landing_craft': [0.9230769230769231, 0.9230769230769231, 0.9230769230769231, 0.9946666666666667]}",/var/seda-datasets/1.DS_Terceros/1.1.RGB/HRSC2016/HRSC2016/CU-02/results/imgs/cnn/1-shot_5-novel_2-extra/20210904-195321_4.png
"[['Arleigh_Burke_class_destroyers', 'Austen_class_amphibious_transport_dock', 'Command_ship_A', 'Container_ship_A', 'Nimitz_Enterprise_class_aircraft_carrier', 'Perry_class_frigate', 'Tarawa-class_amphibious_assault_ship', 'Ticonderoga_class_cruiser', 'WhidbeyIsland_class_landing_craft'], ['Sanantonio_class_amphibious_transport_dock', 'Container_ship', 'Car_carrier_B', 'Car_carrier_A', 'Medical_ship'], ['Destroyer_Murasame', 'Minesweeper_Segura']]",1047.916940689087,"{'Arleigh_Burke_class_destroyers': [0.9838709677419355, 0.9838709677419355, 0.9838709677419355, 0.9946666666666667], 'Austen_class_amphibious_transport_dock': [0.4375, 1.0, 0.6086956521739131, 0.976], 'Car_carrier_A': [0.9333333333333333, 0.6363636363636364, 0.7567567567567568, 0.976], 'Car_carrier_B': [0.6, 0.9230769230769231, 0.7272727272727274, 0.976], 'Command_ship_A': [0.9166666666666666, 0.9166666666666666, 0.9166666666666666, 0.9946666666666667], 'Container_ship': [0.19230769230769232, 0.8333333333333334, 0.3125, 0.9413333333333334], 'Container_ship_A': [0.1891891891891892, 0.875, 0.3111111111111111, 0.9173333333333333], 'Destroyer_Murasame': [1.0, 0.7272727272727273, 0.8421052631578948, 0.992], 'Medical_ship': [0.9166666666666666, 0.22, 0.3548387096774193, 0.8933333333333333], 'Minesweeper_Segura': [1.0, 0.6923076923076923, 0.8181818181818181, 0.9893333333333333], 'Nimitz_Enterprise_class_aircraft_carrier': [1.0, 0.9583333333333334, 0.9787234042553191, 0.9973333333333333], 'Perry_class_frigate': [0.975, 0.975, 0.975, 0.9946666666666667], 'Sanantonio_class_amphibious_transport_dock': [0.9230769230769231, 0.6857142857142857, 0.7868852459016394, 0.9653333333333334], 'Tarawa-class_amphibious_assault_ship': [0.9047619047619048, 0.7307692307692307, 0.8085106382978723, 0.976], 'Ticonderoga_class_cruiser': [0.9714285714285714, 0.9444444444444444, 0.9577464788732395, 0.992], 'WhidbeyIsland_class_landing_craft': [0.7692307692307693, 1.0, 0.8695652173913044, 0.992]}",/var/seda-datasets/1.DS_Terceros/1.1.RGB/HRSC2016/HRSC2016/CU-02/results/imgs/cnn/1-shot_5-novel_2-extra/20210904-201217_5.png
"[['Arleigh_Burke_class_destroyers', 'Austen_class_amphibious_transport_dock', 'Command_ship_A', 'Container_ship_A', 'Nimitz_Enterprise_class_aircraft_carrier', 'Perry_class_frigate', 'Tarawa-class_amphibious_assault_ship', 'Ticonderoga_class_cruiser', 'WhidbeyIsland_class_landing_craft'], ['Car_carrier_B', 'Sanantonio_class_amphibious_transport_dock', 'Container_ship', 'Medical_ship', 'Car_carrier_A'], ['Minesweeper_Segura', 'Destroyer_Murasame']]",1055.3590807914734,"{'Arleigh_Burke_class_destroyers': [0.9516129032258065, 1.0, 0.9752066115702479, 0.992], 'Austen_class_amphibious_transport_dock': [1.0, 0.9411764705882353, 0.9696969696969697, 0.9973333333333333], 'Car_carrier_A': [0.4, 1.0, 0.5714285714285715, 0.976], 'Car_carrier_B': [0.7, 0.7, 0.7, 0.968], 'Command_ship_A': [0.9166666666666666, 0.8461538461538461, 0.8799999999999999, 0.992], 'Container_ship': [0.8076923076923077, 0.5833333333333334, 0.6774193548387097, 0.9466666666666667], 'Container_ship_A': [0.1891891891891892, 0.7, 0.2978723404255319, 0.912], 'Destroyer_Murasame': [0.25, 0.5, 0.3333333333333333, 0.9786666666666667], 'Medical_ship': [1.0, 0.3870967741935484, 0.5581395348837209, 0.9493333333333334], 'Minesweeper_Segura': [1.0, 0.6428571428571429, 0.782608695652174, 0.9866666666666667], 'Nimitz_Enterprise_class_aircraft_carrier': [0.9565217391304348, 0.88, 0.9166666666666666, 0.9893333333333333], 'Perry_class_frigate': [1.0, 0.9302325581395349, 0.963855421686747, 0.992], 'Sanantonio_class_amphibious_transport_dock': [0.8846153846153846, 0.9583333333333334, 0.9199999999999999, 0.9893333333333333], 'Tarawa-class_amphibious_assault_ship': [1.0, 0.84, 0.9130434782608696, 0.9893333333333333], 'Ticonderoga_class_cruiser': [0.9714285714285714, 0.9444444444444444, 0.9577464788732395, 0.992], 'WhidbeyIsland_class_landing_craft': [0.8461538461538461, 0.9166666666666666, 0.8799999999999999, 0.992]}",/var/seda-datasets/1.DS_Terceros/1.1.RGB/HRSC2016/HRSC2016/CU-02/results/imgs/cnn/1-shot_5-novel_2-extra/20210904-203115_6.png
"[['Arleigh_Burke_class_destroyers', 'Austen_class_amphibious_transport_dock', 'Command_ship_A', 'Container_ship_A', 'Nimitz_Enterprise_class_aircraft_carrier', 'Perry_class_frigate', 'Tarawa-class_amphibious_assault_ship', 'Ticonderoga_class_cruiser', 'WhidbeyIsland_class_landing_craft'], ['Car_carrier_A', 'Medical_ship', 'Container_ship', 'Sanantonio_class_amphibious_transport_dock', 'Car_carrier_B'], ['Minesweeper_Segura', 'Destroyer_Murasame']]",1055.1572897434235,"{'Arleigh_Burke_class_destroyers': [0.7419354838709677, 0.9387755102040817, 0.828828828828829, 0.9493333333333334], 'Austen_class_amphibious_transport_dock': [0.875, 0.875, 0.875, 0.9893333333333333], 'Car_carrier_A': [0.8666666666666667, 0.6842105263157895, 0.7647058823529413, 0.9786666666666667], 'Car_carrier_B': [0.7, 0.7, 0.7, 0.968], 'Command_ship_A': [0.8333333333333334, 0.45454545454545453, 0.5882352941176471, 0.9626666666666667], 'Container_ship': [0.5769230769230769, 0.8823529411764706, 0.6976744186046512, 0.9653333333333334], 'Container_ship_A': [0.5135135135135135, 0.7307692307692307, 0.6031746031746031, 0.9333333333333333], 'Destroyer_Murasame': [0.75, 0.12, 0.20689655172413793, 0.8773333333333333], 'Medical_ship': [1.0, 0.5, 0.6666666666666666, 0.968], 'Minesweeper_Segura': [0.7777777777777778, 0.4117647058823529, 0.5384615384615384, 0.968], 'Nimitz_Enterprise_class_aircraft_carrier': [1.0, 1.0, 1.0, 1.0], 'Perry_class_frigate': [0.2, 0.36363636363636365, 0.25806451612903225, 0.8773333333333333], 'Sanantonio_class_amphibious_transport_dock': [0.46153846153846156, 0.75, 0.5714285714285714, 0.952], 'Tarawa-class_amphibious_assault_ship': [1.0, 0.9130434782608695, 0.9545454545454545, 0.9946666666666667], 'Ticonderoga_class_cruiser': [0.4, 0.7368421052631579, 0.5185185185185185, 0.9306666666666666], 'WhidbeyIsland_class_landing_craft': [0.8461538461538461, 0.9166666666666666, 0.8799999999999999, 0.992]}",/var/seda-datasets/1.DS_Terceros/1.1.RGB/HRSC2016/HRSC2016/CU-02/results/imgs/cnn/1-shot_5-novel_2-extra/20210904-205022_7.png
"[['Arleigh_Burke_class_destroyers', 'Austen_class_amphibious_transport_dock', 'Command_ship_A', 'Container_ship_A', 'Nimitz_Enterprise_class_aircraft_carrier', 'Perry_class_frigate', 'Tarawa-class_amphibious_assault_ship', 'Ticonderoga_class_cruiser', 'WhidbeyIsland_class_landing_craft'], ['Medical_ship', 'Car_carrier_B', 'Container_ship', 'Car_carrier_A', 'Sanantonio_class_amphibious_transport_dock'], ['Minesweeper_Segura', 'Destroyer_Murasame']]",1044.9827671051025,"{'Arleigh_Burke_class_destroyers': [0.967741935483871, 0.9090909090909091, 0.9374999999999999, 0.9786666666666667], 'Austen_class_amphibious_transport_dock': [1.0, 0.8421052631578947, 0.9142857142857143, 0.992], 'Car_carrier_A': [0.8666666666666667, 0.6842105263157895, 0.7647058823529413, 0.9786666666666667], 'Car_carrier_B': [0.75, 0.4166666666666667, 0.5357142857142857, 0.9306666666666666], 'Command_ship_A': [0.9166666666666666, 0.7857142857142857, 0.8461538461538461, 0.9893333333333333], 'Container_ship': [0.2692307692307692, 0.875, 0.411764705882353, 0.9466666666666667], 'Container_ship_A': [0.2972972972972973, 0.4583333333333333, 0.36065573770491804, 0.896], 'Destroyer_Murasame': [0.5, 0.6666666666666666, 0.5714285714285715, 0.984], 'Medical_ship': [0.75, 0.3333333333333333, 0.46153846153846156, 0.944], 'Minesweeper_Segura': [0.8888888888888888, 0.5714285714285714, 0.6956521739130435, 0.9813333333333333], 'Nimitz_Enterprise_class_aircraft_carrier': [1.0, 1.0, 1.0, 1.0], 'Perry_class_frigate': [0.875, 1.0, 0.9333333333333333, 0.9866666666666667], 'Sanantonio_class_amphibious_transport_dock': [0.5, 0.9285714285714286, 0.65, 0.9626666666666667], 'Tarawa-class_amphibious_assault_ship': [1.0, 0.9130434782608695, 0.9545454545454545, 0.9946666666666667], 'Ticonderoga_class_cruiser': [0.9428571428571428, 1.0, 0.9705882352941176, 0.9946666666666667], 'WhidbeyIsland_class_landing_craft': [0.7692307692307693, 0.7142857142857143, 0.7407407407407408, 0.9813333333333333]}",/var/seda-datasets/1.DS_Terceros/1.1.RGB/HRSC2016/HRSC2016/CU-02/results/imgs/cnn/1-shot_5-novel_2-extra/20210904-210928_8.png
"[['Arleigh_Burke_class_destroyers', 'Austen_class_amphibious_transport_dock', 'Command_ship_A', 'Container_ship_A', 'Nimitz_Enterprise_class_aircraft_carrier', 'Perry_class_frigate', 'Tarawa-class_amphibious_assault_ship', 'Ticonderoga_class_cruiser', 'WhidbeyIsland_class_landing_craft'], ['Car_carrier_A', 'Medical_ship', 'Container_ship', 'Car_carrier_B', 'Sanantonio_class_amphibious_transport_dock'], ['Minesweeper_Segura', 'Destroyer_Murasame']]",1047.505168914795,"{'Arleigh_Burke_class_destroyers': [0.9838709677419355, 0.9838709677419355, 0.9838709677419355, 0.9946666666666667], 'Austen_class_amphibious_transport_dock': [1.0, 0.8888888888888888, 0.9411764705882353, 0.9946666666666667], 'Car_carrier_A': [0.8666666666666667, 0.9285714285714286, 0.896551724137931, 0.992], 'Car_carrier_B': [1.0, 0.7692307692307693, 0.8695652173913044, 0.984], 'Command_ship_A': [1.0, 0.8, 0.888888888888889, 0.992], 'Container_ship': [0.5384615384615384, 0.8235294117647058, 0.6511627906976744, 0.96], 'Container_ship_A': [0.3783783783783784, 0.6363636363636364, 0.4745762711864407, 0.9173333333333333], 'Destroyer_Murasame': [0.75, 0.6666666666666666, 0.7058823529411765, 0.9866666666666667], 'Medical_ship': [1.0, 0.4444444444444444, 0.6153846153846153, 0.96], 'Minesweeper_Segura': [0.8888888888888888, 0.7272727272727273, 0.7999999999999999, 0.9893333333333333], 'Nimitz_Enterprise_class_aircraft_carrier': [1.0, 0.9583333333333334, 0.9787234042553191, 0.9973333333333333], 'Perry_class_frigate': [0.95, 0.95, 0.9500000000000001, 0.9893333333333333], 'Sanantonio_class_amphibious_transport_dock': [0.8846153846153846, 1.0, 0.9387755102040816, 0.992], 'Tarawa-class_amphibious_assault_ship': [1.0, 0.9130434782608695, 0.9545454545454545, 0.9946666666666667], 'Ticonderoga_class_cruiser': [0.9142857142857143, 0.9411764705882353, 0.9275362318840579, 0.9866666666666667], 'WhidbeyIsland_class_landing_craft': [0.6923076923076923, 0.9, 0.7826086956521738, 0.9866666666666667]}",/var/seda-datasets/1.DS_Terceros/1.1.RGB/HRSC2016/HRSC2016/CU-02/results/imgs/cnn/1-shot_5-novel_2-extra/20210904-212825_9.png
